                                                                                                                           
                                                                                                                           
                  BBBBBBBBBBBBBBBBB                                            iiii                                        
                  B::::::::::::::::B                                          i::::i                                       
                  B::::::BBBBBB:::::B                                          iiii                                        
                  BB:::::B     B:::::B                                                                                     
  aaaaaaaaaaaaa     B::::B     B:::::B    eeeeeeeeeeee    rrrrr   rrrrrrrrr  iiiiiii     cccccccccccccccc  aaaaaaaaaaaaa   
  a::::::::::::a    B::::B     B:::::B  ee::::::::::::ee  r::::rrr:::::::::r i:::::i   cc:::::::::::::::c  a::::::::::::a  
  aaaaaaaaa:::::a   B::::BBBBBB:::::B  e::::::eeeee:::::eer:::::::::::::::::r i::::i  c:::::::::::::::::c  aaaaaaaaa:::::a 
           a::::a   B:::::::::::::BB  e::::::e     e:::::err::::::rrrrr::::::ri::::i c:::::::cccccc:::::c           a::::a 
    aaaaaaa:::::a   B::::BBBBBB:::::B e:::::::eeeee::::::e r:::::r     r:::::ri::::i c::::::c     ccccccc    aaaaaaa:::::a 
  aa::::::::::::a   B::::B     B:::::Be:::::::::::::::::e  r:::::r     rrrrrrri::::i c:::::c               aa::::::::::::a 
 a::::aaaa::::::a   B::::B     B:::::Be::::::eeeeeeeeeee   r:::::r            i::::i c:::::c              a::::aaaa::::::a 
a::::a    a:::::a   B::::B     B:::::Be:::::::e            r:::::r            i::::i c::::::c     ccccccca::::a    a:::::a 
a::::a    a:::::a BB:::::BBBBBB::::::Be::::::::e           r:::::r           i::::::ic:::::::cccccc:::::ca::::a    a:::::a 
a:::::aaaa::::::a B:::::::::::::::::B  e::::::::eeeeeeee   r:::::r           i::::::i c:::::::::::::::::ca:::::aaaa::::::a 
 a::::::::::aa:::aB::::::::::::::::B    ee:::::::::::::e   r:::::r           i::::::i  cc:::::::::::::::c a::::::::::aa:::a
  aaaaaaaaaa  aaaaBBBBBBBBBBBBBBBBB       eeeeeeeeeeeeee   rrrrrrr           iiiiiiii    cccccccccccccccc  aaaaaaaaaa  aaaa
                                                                                                                           
                                                                                                                           
                                                                                                                           
                                                                                                                           
                                                                                                                           
                                                                                                                           
                                                                                                                           